%YAML 1.1
%TAG !u! tag:unity3d.com,2011:
--- !u!114 &11400000
MonoBehaviour:
  m_ObjectHideFlags: 0
  m_CorrespondingSourceObject: {fileID: 0}
  m_PrefabInstance: {fileID: 0}
  m_PrefabAsset: {fileID: 0}
  m_GameObject: {fileID: 0}
  m_Enabled: 1
  m_EditorHideFlags: 0
  m_Script: {fileID: 11500000, guid: 93c112bd67b62014bb5495c8df0824d7, type: 3}
  m_Name: MenuScene
  m_EditorClassIdentifier: 
  sceneName: MenuScene
  soundsData:
  - name: menu-music
    type: 0
    loop: 1
    volume: 1
    pitch: 1
    clip: {fileID: 8300000, guid: 905ae0e0caa006e4eb9a03dfb6a3e4e4, type: 3}
    loopTimes: 0
  - name: click-sound
    type: 1
    loop: 0
    volume: 1
    pitch: 1
    clip: {fileID: 8300000, guid: 3a78ef17b9afd74428a7ce20f1a27153, type: 3}
    loopTimes: 0
